{
	"admin":
	{
		"user": "gisadmin",
		"password": "RFSpot!gis"
	},
	"database": "gis01",
	"tablespace":
	{
		"path": "/mnt/data/postgresql",
		"name": "gis_data"
	},
	"pkglibdir": "/usr/lib/postgresql/9.3/lib"
}
